^C:\USERS\STETSON\DOCUMENTS\BITBUCKET\TICTACTOE\TICTACTOE\TICTACTOE\DEBUG\GAMEBOARD.OBJ|C:\USERS\STETSON\DOCUMENTS\BITBUCKET\TICTACTOE\TICTACTOE\TICTACTOE\DEBUG\GAMEOBJECT.OBJ|C:\USERS\STETSON\DOCUMENTS\BITBUCKET\TICTACTOE\TICTACTOE\TICTACTOE\DEBUG\INTRO.OBJ|C:\USERS\STETSON\DOCUMENTS\BITBUCKET\TICTACTOE\TICTACTOE\TICTACTOE\DEBUG\PLAYER.OBJ|C:\USERS\STETSON\DOCUMENTS\BITBUCKET\TICTACTOE\TICTACTOE\TICTACTOE\DEBUG\STDAFX.OBJ|C:\USERS\STETSON\DOCUMENTS\BITBUCKET\TICTACTOE\TICTACTOE\TICTACTOE\DEBUG\TICTACTOE.OBJ
C:\USERS\STETSON\DOCUMENTS\BITBUCKET\TICTACTOE\TICTACTOE\DEBUG\TICTACTOE.ILK
C:\USERS\STETSON\DOCUMENTS\BITBUCKET\TICTACTOE\TICTACTOE\DEBUG\TICTACTOE.EXE
C:\USERS\STETSON\DOCUMENTS\BITBUCKET\TICTACTOE\TICTACTOE\DEBUG\TICTACTOE.PDB
